…
```
## ── Conflicts ───────────────────── tidyverse_conflicts() ──
## ✖ dplyr::filter() masks stats::filter()
## ✖ dplyr::lag()    masks stats::lag()
```

## Mammals Sleep
For this assignment, we are going to use built-in data on mammal sleep patterns.  

```r
msleep
```

```
## # A tibble: 83 x 11
##    name  genus vore  order conservation sleep_total sleep_rem sleep_cycle
##    <chr> <chr> <chr> <chr> <chr>              <dbl>     <dbl>       <dbl>
##  1 Chee… Acin… carni Carn… lc                  12.1      NA        NA    
##  2 Owl … Aotus omni  Prim… <NA>                17         1.8      NA    
##  3 Moun… Aplo… herbi Rode… nt                  14.4       2.4      NA    
##  4 Grea… Blar… omni  Sori… lc                  14.9       2.3       0.133
##  5 Cow   Bos   herbi Arti… domesticated         4         0.7       0.667
##  6 Thre… Brad… herbi Pilo… <NA>                14.4       2.2       0.767
##  7 Nort… Call… carni Carn… vu                   8.7       1.4       0.383
##  8 Vesp… Calo… <NA>  Rode… <NA>                 7        NA        NA    
##  9 Dog   Canis carni Carn… domesticated        10.1       2.9       0.333
## 10 Roe … Capr… herbi Arti… lc                   3        NA        NA    
## # … with 73 more rows, and 3 more variables: awake <dbl>, brainwt <dbl>,
## #   bodywt <dbl>
```
…
3. Make a new data frame focused on body weight, but be sure to indicate the common name and genus of each mammal.  


```r
#msleep.sub = tibble(msleep$name, msleep$genus, msleep$bodywt)
#msleep.sub

newmSleep <- subset(msleep,  select=c(name, genus, bodywt))
newmSleep
```

```
## # A tibble: 83 x 3
##    name                       genus        bodywt
##    <chr>                      <chr>         <dbl>
##  1 Cheetah                    Acinonyx     50    
##  2 Owl monkey                 Aotus         0.48 
##  3 Mountain beaver            Aplodontia    1.35 
##  4 Greater short-tailed shrew Blarina       0.019
##  5 Cow                        Bos         600    
##  6 Three-toed sloth           Bradypus      3.85 
##  7 Northern fur seal          Callorhinus  20.5  
##  8 Vesper mouse               Calomys       0.045
##  9 Dog                        Canis        14    
## 10 Roe deer                   Capreolus    14.8  
## # … with 73 more rows
```
…
```r
#largemsleep.sub = tibble(msleep$name, msleep$genus, msleep$bodywt, msleep$sleep_total)
#largemsleep.sub
#filter(largemsleep.sub, msleep$bodywt>=200)

#smallmsleep.sub = tibble(msleep$name, msleep$genus, msleep$bodywt, msleep$sleep_total)
#smallmsleep.sub
#filter(smallmsleep.sub, msleep$bodywt <200)

smallmSleep <- subset(msleep, bodywt < 200, select=c(name, genus, bodywt, sleep_total))
smallmSleep
```

```
## # A tibble: 76 x 4
##    name                       genus       bodywt sleep_total
##    <chr>                      <chr>        <dbl>       <dbl>
##  1 Cheetah                    Acinonyx    50            12.1
##  2 Owl monkey                 Aotus        0.48         17  
##  3 Mountain beaver            Aplodontia   1.35         14.4
##  4 Greater short-tailed shrew Blarina      0.019        14.9
##  5 Three-toed sloth           Bradypus     3.85         14.4
##  6 Northern fur seal          Callorhinus 20.5           8.7
##  7 Vesper mouse               Calomys      0.045         7  
##  8 Dog                        Canis       14            10.1
##  9 Roe deer                   Capreolus   14.8           3  
## 10 Goat                       Capri       33.5           5.3
## # … with 66 more rows
```
…
